thiet_ke_ALU/ketqua_alu.vcd
$date
	Tue Nov 25 22:52:13 2025
$end
$version
	Icarus Verilog
$end
$timescale
	1ps
$end
$scope module tb_ALU $end
$var wire 1 ! zero_flag $end
$var wire 1 " overflow_flag $end
$var wire 32 # alu_result [31:0] $end
$var reg 4 $ alu_op [3:0] $end
$var reg 32 % operand_a [31:0] $end
$var reg 32 & operand_b [31:0] $end
$scope module uut $end
$var wire 4 ' alu_op [3:0] $end
$var wire 32 ( ground [31:0] $end
$var wire 32 ) operand_a [31:0] $end
$var wire 32 * operand_b [31:0] $end
$var wire 32 + res_and [31:0] $end
$var wire 32 , res_nor [31:0] $end
$var wire 32 - res_or [31:0] $end
$var wire 32 . res_xor [31:0] $end
$var wire 1 ! zero_flag $end
$var wire 32 / wire_mux_low_out [31:0] $end
$var wire 32 0 wire_mux_high_out [31:0] $end
$var wire 1 1 sr $end
$var wire 3 2 sel_low_bits [2:0] $end
$var wire 1 3 sel_high_bit $end
$var wire 1 4 sb $end
$var wire 1 5 sa $end
$var wire 32 6 res_sub [31:0] $end
$var wire 32 7 res_slt [31:0] $end
$var wire 32 8 res_add [31:0] $end
$var wire 1 " overflow_flag $end
$var wire 32 9 alu_result [31:0] $end
$var parameter 32 : ALU_OP_WIDTH $end
$var parameter 32 ; DATA_WIDTH $end
$scope module MUX_FINAL_UNIT $end
$var wire 1 3 sel $end
$var wire 32 < y [31:0] $end
$var wire 32 = d1 [31:0] $end
$var wire 32 > d0 [31:0] $end
$var parameter 32 ? WIDTH $end
$upscope $end
$scope module MUX_HIGH_UNIT $end
$var wire 32 @ d0 [31:0] $end
$var wire 32 A d1 [31:0] $end
$var wire 32 B d2 [31:0] $end
$var wire 32 C d3 [31:0] $end
$var wire 32 D d4 [31:0] $end
$var wire 32 E d5 [31:0] $end
$var wire 32 F d6 [31:0] $end
$var wire 32 G d7 [31:0] $end
$var wire 3 H sel [2:0] $end
$var parameter 32 I WIDTH $end
$var reg 32 J y [31:0] $end
$upscope $end
$scope module MUX_LOW_UNIT $end
$var wire 32 K d0 [31:0] $end
$var wire 32 L d1 [31:0] $end
$var wire 32 M d2 [31:0] $end
$var wire 32 N d3 [31:0] $end
$var wire 32 O d4 [31:0] $end
$var wire 32 P d5 [31:0] $end
$var wire 32 Q d6 [31:0] $end
$var wire 32 R d7 [31:0] $end
$var wire 3 S sel [2:0] $end
$var parameter 32 T WIDTH $end
$var reg 32 U y [31:0] $end
$upscope $end
$upscope $end
$scope task print_res $end
$var reg 40 V op_name [40:1] $end
$upscope $end
$upscope $end
$enddefinitions $end
$comment Show the parameter values. $end
$dumpall
b100000 T
b100000 I
b100000 ?
b100000 ;
b100 :
$end
#0
$dumpvars
bx V
b111111110000000000000000 U
b0 S
b1 R
b11111110111111110000000100000000 Q
b0 P
b11111111000000001111111100000000 O
b0 N
b111111101111111100000000 M
b11111111111111111111111100000000 L
b111111110000000000000000 K
b0 J
b0 H
b0 G
b0 F
b0 E
b11111111 D
b0 C
b0 B
b0 A
b0 @
b111111110000000000000000 >
b0 =
b111111110000000000000000 <
b111111110000000000000000 9
b111111101111111100000000 8
b1 7
b11111110111111110000000100000000 6
15
04
03
b0 2
01
b0 0
b111111110000000000000000 /
b11111111000000001111111100000000 .
b11111111111111111111111100000000 -
b11111111 ,
b111111110000000000000000 +
b111111111111111100000000 *
b11111111111111110000000000000000 )
b0 (
b0 '
b111111111111111100000000 &
b11111111111111110000000000000000 %
b0 $
b111111110000000000000000 #
0"
0!
$end
#10000
11
b11111111111111111111111111111111 #
b11111111111111111111111111111111 9
b11111111111111111111111111111111 <
b11111111111111111111111111111111 /
b11111111111111111111111111111111 >
b11111111111111111111111111111111 U
b0 ,
b0 D
b1 2
b1 H
b1 S
b0 +
b0 K
b11111111111111111111111111111111 -
b11111111111111111111111111111111 L
b11111111111111111111111111111111 .
b11111111111111111111111111111111 O
b1 $
b1 '
b1111000011110000111100001111 &
b1111000011110000111100001111 *
b11111111111111111111111111111111 8
b11111111111111111111111111111111 M
b11100001111000011110000111100001 6
b11100001111000011110000111100001 Q
b11110000111100001111000011110000 %
b11110000111100001111000011110000 )
b100000101001110010001000010000000100000 V
#20000
0"
01
b101000 #
b101000 9
b101000 <
b101000 /
b101000 >
b101000 U
b11111111111111111111111111100000 ,
b11111111111111111111111111100000 D
b10 2
b10 H
b10 S
b1001 +
b1001 K
b11111 -
b11111 L
b10110 .
b10110 O
05
b10 $
b10 '
b11001 &
b11001 *
b101000 8
b101000 M
b11111111111111111111111111110110 6
b11111111111111111111111111110110 Q
b1111 %
b1111 )
b100111101010010001000000010000000100000 V
#30000
11
b0 ,
b0 D
b11111111111111111111111111111111 #
b11111111111111111111111111111111 9
b11111111111111111111111111111111 <
b100 2
b100 H
b100 S
b0 +
b0 K
b11111111111111111111111111111111 -
b11111111111111111111111111111111 L
b11111111111111111111111111111111 .
b11111111111111111111111111111111 O
b11111111111111111111111111111111 /
b11111111111111111111111111111111 >
b11111111111111111111111111111111 U
15
b100 $
b100 '
b1010101010101010101010101010101 &
b1010101010101010101010101010101 *
b11111111111111111111111111111111 8
b11111111111111111111111111111111 M
b1010101010101010101010101010101 6
b1010101010101010101010101010101 Q
b10101010101010101010101010101010 %
b10101010101010101010101010101010 )
b100000101000100010001000010000000100000 V
#40000
01
1!
b0 #
b0 9
b0 <
b0 /
b0 >
b0 U
b11111111111111111111111111001101 ,
b11111111111111111111111111001101 D
b110 2
b110 H
b110 S
b0 7
b0 R
b110010 +
b110010 K
b110010 -
b110010 L
b0 .
b0 O
05
b110 $
b110 '
b110010 &
b110010 *
b1100100 8
b1100100 M
b0 6
b0 Q
b110010 %
b110010 )
b101100001001111010100100010000000100000 V
#50000
01
b11111111111111111111111111100001 ,
b11111111111111111111111111100001 D
0!
b1 #
b1 9
b1 <
b111 2
b111 H
b111 S
b0 +
b0 K
b11110 -
b11110 L
b11110 .
b11110 O
b1 /
b1 >
b1 U
b1 7
b1 R
b111 $
b111 '
b10100 &
b10100 *
b11110 8
b11110 M
b11111111111111111111111111110110 6
b11111111111111111111111111110110 Q
b1010 %
b1010 )
b101001101010101010000100011110100110000 V
#60000
b100 ,
b100 D
b1010 +
b1010 K
b11111111111111111111111111111011 -
b11111111111111111111111111111011 L
b11111111111111111111111111110001 .
b11111111111111111111111111110001 O
15
b1010 &
b1010 *
b101 8
b101 M
b11111111111111111111111111110001 6
b11111111111111111111111111110001 Q
b11111111111111111111111111111011 %
b11111111111111111111111111111011 )
b101001101001100010101000010000000101011 V
#70000
11
b11111111111111111111111111111111 0
b11111111111111111111111111111111 =
b11111111111111111111111111111111 J
0!
b11111111111111111111111111111111 #
b11111111111111111111111111111111 9
b11111111111111111111111111111111 <
b0 /
b0 >
b0 U
b11111111111111111111111111111111 ,
b11111111111111111111111111111111 D
b100 2
b100 H
b100 S
13
b0 7
b0 R
b0 +
b0 K
b0 -
b0 L
b0 .
b0 O
05
b1100 $
b1100 '
b0 &
b0 *
b0 8
b0 M
b0 6
b0 Q
b0 %
b0 )
b101001101001100010101000010000000101101 V
#80000
01
1!
b0 #
b0 9
b0 <
b0 0
b0 =
b0 J
b11111111111111111111111111111111 /
b11111111111111111111111111111111 >
b11111111111111111111111111111111 U
b0 ,
b0 D
b0 2
b0 H
b0 S
14
b11111111111111111111111111111111 +
b11111111111111111111111111111111 K
b11111111111111111111111111111111 -
b11111111111111111111111111111111 L
15
b1000 $
b1000 '
b11111111111111111111111111111111 &
b11111111111111111111111111111111 *
b11111111111111111111111111111110 8
b11111111111111111111111111111110 M
b0 6
b0 Q
b11111111111111111111111111111111 %
b11111111111111111111111111111111 )
b100111001001111010100100010000000100000 V
#90000
11
0!
b10000000000000000000000000000000 #
b10000000000000000000000000000000 9
b10000000000000000000000000000000 <
b10000000000000000000000000000000 /
b10000000000000000000000000000000 >
b10000000000000000000000000000000 U
b10000000000000000000000000000000 ,
b10000000000000000000000000000000 D
b10 2
b10 H
b10 S
03
1"
04
b1 +
b1 K
b1111111111111111111111111111111 -
b1111111111111111111111111111111 L
b1111111111111111111111111111110 .
b1111111111111111111111111111110 O
05
b10 $
b10 '
b1 &
b1 *
b10000000000000000000000000000000 8
b10000000000000000000000000000000 M
b1111111111111111111111111111110 6
b1111111111111111111111111111110 Q
b1111111111111111111111111111111 %
b1111111111111111111111111111111 )
b100111001010101010011000100110000100000 V
#100000
01
b1111111111111111111111111111110 ,
b1111111111111111111111111111110 D
b1111111111111111111111111111111 #
b1111111111111111111111111111111 9
b1111111111111111111111111111111 <
b110 2
b110 H
b110 S
1"
b0 +
b0 K
b10000000000000000000000000000001 -
b10000000000000000000000000000001 L
b10000000000000000000000000000001 .
b10000000000000000000000000000001 O
b1111111111111111111111111111111 /
b1111111111111111111111111111111 >
b1111111111111111111111111111111 U
b1 7
b1 R
15
b110 $
b110 '
b10000000000000000000000000000001 8
b10000000000000000000000000000001 M
b1111111111111111111111111111111 6
b1111111111111111111111111111111 Q
b10000000000000000000000000000000 %
b10000000000000000000000000000000 )
b100111101010110010001100010000000101011 V
#110000
b100111101010110010001100010000000101101 V
