thiet_ke_ALU/ketqua.vcd
$date
	Tue Nov 25 16:31:05 2025
$end
$version
	Icarus Verilog
$end
$timescale
	1ps
$end
$scope module tb_ALU $end
$var wire 1 ! Zero $end
$var wire 1 " Overflow $end
$var wire 32 # ALUResult [31:0] $end
$var reg 3 $ ALUControl [2:0] $end
$var reg 32 % SrcA [31:0] $end
$var reg 32 & SrcB [31:0] $end
$scope module uut $end
$var wire 3 ' ALUControl [2:0] $end
$var wire 32 ( SrcA [31:0] $end
$var wire 32 ) SrcB [31:0] $end
$var wire 1 * ovf_internal $end
$var wire 32 + res_add [31:0] $end
$var wire 32 , res_and [31:0] $end
$var wire 32 - res_nor [31:0] $end
$var wire 32 . res_or [31:0] $end
$var wire 32 / res_sub [31:0] $end
$var wire 1 0 slt_val $end
$var wire 32 1 sum_result [31:0] $end
$var wire 32 2 res_slt [31:0] $end
$var wire 32 3 b_proc [31:0] $end
$var wire 1 ! Zero $end
$var wire 1 " Overflow $end
$var wire 32 4 ALUResult [31:0] $end
$scope module final_mux $end
$var wire 32 5 d0 [31:0] $end
$var wire 32 6 d1 [31:0] $end
$var wire 32 7 d2 [31:0] $end
$var wire 32 8 d3 [31:0] $end
$var wire 32 9 d4 [31:0] $end
$var wire 32 : d5 [31:0] $end
$var wire 32 ; d6 [31:0] $end
$var wire 32 < d7 [31:0] $end
$var wire 3 = sel [2:0] $end
$var reg 32 > y [31:0] $end
$upscope $end
$upscope $end
$scope task print_res $end
$var reg 32 ? op_name [32:1] $end
$upscope $end
$upscope $end
$enddefinitions $end
$comment Show the parameter values. $end
$dumpall
$end
#0
$dumpvars
bx ?
b0 >
b0 =
b1 <
b11111111111111111111111111111111 ;
b0 :
b0 9
b0 8
b11111111111111111111111111111111 7
b11111111111111111111111111111111 6
b0 5
b0 4
b1111000011110000111100001111 3
b1 2
b11111111111111111111111111111111 1
10
b11111111111111111111111111111111 /
b11111111111111111111111111111111 .
b0 -
b0 ,
b11111111111111111111111111111111 +
0*
b1111000011110000111100001111 )
b11110000111100001111000011110000 (
b0 '
b1111000011110000111100001111 &
b11110000111100001111000011110000 %
b0 $
b0 #
0"
1!
$end
#10000
b11111111111111111111111111100001 -
b11111111111111111111111111100001 9
b0 2
b0 <
00
b10100 3
b11110 .
b11110 6
0!
b11110 #
b11110 4
b11110 >
b10 $
b10 '
b10 =
b10100 &
b10100 )
b11110 /
b11110 ;
b11110 +
b11110 7
b11110 1
b1010 %
b1010 (
b1000001010011100100010000100000 ?
#20000
1!
b11111111111111111111111110011011 -
b11111111111111111111111110011011 9
b11111111111111111111111110011100 3
b1100100 ,
b1100100 5
b1100100 .
b1100100 6
b0 #
b0 4
b0 >
b110 $
b110 '
b110 =
b1100100 &
b1100100 )
b0 /
b0 ;
b0 +
b0 7
b0 1
b1100100 %
b1100100 (
b1000001010001000100010000100000 ?
#30000
b11111111111111111111111111101100 3
0!
b1 #
b1 4
b1 >
b11111111111111111111111111100001 -
b11111111111111111111111111100001 9
b1 2
b1 <
10
b0 ,
b0 5
b11110 .
b11110 6
b111 $
b111 '
b111 =
b10100 &
b10100 )
b11111111111111111111111111110110 /
b11111111111111111111111111110110 ;
b11111111111111111111111111110110 +
b11111111111111111111111111110110 7
b11111111111111111111111111110110 1
b1010 %
b1010 (
b1010011010101010100001000110000 ?
#40000
b11111111111111111111111111110110 3
b100 -
b100 9
b1010 ,
b1010 5
b11111111111111111111111111111011 .
b11111111111111111111111111111011 6
b1010 &
b1010 )
b11111111111111111111111111110001 /
b11111111111111111111111111110001 ;
b11111111111111111111111111110001 +
b11111111111111111111111111110001 7
b11111111111111111111111111110001 1
b11111111111111111111111111111011 %
b11111111111111111111111111111011 (
b1010011010011000101010000110001 ?
#50000
1"
1*
b1110000000000000000000000000000 3
b10001111111111111111111111111111 -
b10001111111111111111111111111111 9
b0 2
b0 <
00
b1110000000000000000000000000000 ,
b1110000000000000000000000000000 5
b1110000000000000000000000000000 .
b1110000000000000000000000000000 6
b11100000000000000000000000000000 #
b11100000000000000000000000000000 4
b11100000000000000000000000000000 >
b10 $
b10 '
b10 =
b1110000000000000000000000000000 &
b1110000000000000000000000000000 )
b11100000000000000000000000000000 /
b11100000000000000000000000000000 ;
b11100000000000000000000000000000 +
b11100000000000000000000000000000 7
b11100000000000000000000000000000 1
b1110000000000000000000000000000 %
b1110000000000000000000000000000 (
b1010011010011000101010000110010 ?
#60000
b1 2
b1 <
10
1"
1*
b1111111111111111111111111111110 -
b1111111111111111111111111111110 9
b11111111111111111111111111111111 3
b0 ,
b0 5
b10000000000000000000000000000001 .
b10000000000000000000000000000001 6
0!
b1 #
b1 4
b1 >
b111 $
b111 '
b111 =
b1 &
b1 )
b1111111111111111111111111111111 /
b1111111111111111111111111111111 ;
b1111111111111111111111111111111 +
b1111111111111111111111111111111 7
b1111111111111111111111111111111 1
b10000000000000000000000000000000 %
b10000000000000000000000000000000 (
b1001111010101100100010101010010 ?
#70000
b1010011010011000101010000110011 ?
